^C:\USERS\LUKAS\DOCUMENTS\VISUAL STUDIO 2012\BP\SUMMER\TESTPROJECT1\TESTPROJECT1\STDAFX.CPP
/c /ID:\OpenCV\opencv\build\x86\vc11\..\..\include /ZI /nologo /W3 /WX- /sdl /Od /Oy- /D WIN32 /D _WINDOWS /D _DEBUG /D _UNICODE /D UNICODE /Gm /EHsc /RTC1 /MTd /GS /fp:precise /Zc:wchar_t /Zc:forScope /Yc"stdafx.h" /Fp"DEBUG\TESTPROJECT1.PCH" /Fo"DEBUG\\" /Fd"DEBUG\VC110.PDB" /Gd /TP /analyze- C:\USERS\LUKAS\DOCUMENTS\VISUAL STUDIO 2012\BP\SUMMER\TESTPROJECT1\TESTPROJECT1\STDAFX.CPP
^C:\USERS\LUKAS\DOCUMENTS\VISUAL STUDIO 2012\BP\SUMMER\TESTPROJECT1\TESTPROJECT1\KINECTCONTROLLER.CPP
/c /ID:\OpenCV\opencv\build\x86\vc11\..\..\include /ZI /nologo /W3 /WX- /sdl /Od /Oy- /D WIN32 /D _WINDOWS /D _DEBUG /D _UNICODE /D UNICODE /Gm /EHsc /RTC1 /MTd /GS /fp:precise /Zc:wchar_t /Zc:forScope /Fo"DEBUG\\" /Fd"DEBUG\VC110.PDB" /Gd /TP /analyze- C:\USERS\LUKAS\DOCUMENTS\VISUAL STUDIO 2012\BP\SUMMER\TESTPROJECT1\TESTPROJECT1\KINECTCONTROLLER.CPP
^C:\USERS\LUKAS\DOCUMENTS\VISUAL STUDIO 2012\BP\SUMMER\TESTPROJECT1\TESTPROJECT1\OPENCVFRAMEHELPER.CPP
/c /ID:\OpenCV\opencv\build\x86\vc11\..\..\include /ZI /nologo /W3 /WX- /sdl /Od /Oy- /D WIN32 /D _WINDOWS /D _DEBUG /D _UNICODE /D UNICODE /Gm /EHsc /RTC1 /MTd /GS /fp:precise /Zc:wchar_t /Zc:forScope /Fo"DEBUG\\" /Fd"DEBUG\VC110.PDB" /Gd /TP /analyze- C:\USERS\LUKAS\DOCUMENTS\VISUAL STUDIO 2012\BP\SUMMER\TESTPROJECT1\TESTPROJECT1\OPENCVFRAMEHELPER.CPP
^C:\USERS\LUKAS\DOCUMENTS\VISUAL STUDIO 2012\BP\SUMMER\TESTPROJECT1\TESTPROJECT1\OPENCVHELPER.CPP
/c /ID:\OpenCV\opencv\build\x86\vc11\..\..\include /ZI /nologo /W3 /WX- /sdl /Od /Oy- /D WIN32 /D _WINDOWS /D _DEBUG /D _UNICODE /D UNICODE /Gm /EHsc /RTC1 /MTd /GS /fp:precise /Zc:wchar_t /Zc:forScope /Fo"DEBUG\\" /Fd"DEBUG\VC110.PDB" /Gd /TP /analyze- C:\USERS\LUKAS\DOCUMENTS\VISUAL STUDIO 2012\BP\SUMMER\TESTPROJECT1\TESTPROJECT1\OPENCVHELPER.CPP
^C:\USERS\LUKAS\DOCUMENTS\VISUAL STUDIO 2012\BP\SUMMER\TESTPROJECT1\TESTPROJECT1\TESTPROJECT1.CPP
/c /ID:\OpenCV\opencv\build\x86\vc11\..\..\include /ZI /nologo /W3 /WX- /sdl /Od /Oy- /D WIN32 /D _WINDOWS /D _DEBUG /D _UNICODE /D UNICODE /Gm /EHsc /RTC1 /MTd /GS /fp:precise /Zc:wchar_t /Zc:forScope /Fo"DEBUG\\" /Fd"DEBUG\VC110.PDB" /Gd /TP /analyze- C:\USERS\LUKAS\DOCUMENTS\VISUAL STUDIO 2012\BP\SUMMER\TESTPROJECT1\TESTPROJECT1\TESTPROJECT1.CPP
^C:\USERS\LUKAS\DOCUMENTS\VISUAL STUDIO 2012\BP\SUMMER\TESTPROJECT1\TESTPROJECT1\TESTPROJECT1DLG.CPP
/c /ID:\OpenCV\opencv\build\x86\vc11\..\..\include /ZI /nologo /W3 /WX- /sdl /Od /Oy- /D WIN32 /D _WINDOWS /D _DEBUG /D _UNICODE /D UNICODE /Gm /EHsc /RTC1 /MTd /GS /fp:precise /Zc:wchar_t /Zc:forScope /Fo"DEBUG\\" /Fd"DEBUG\VC110.PDB" /Gd /TP /analyze- C:\USERS\LUKAS\DOCUMENTS\VISUAL STUDIO 2012\BP\SUMMER\TESTPROJECT1\TESTPROJECT1\TESTPROJECT1DLG.CPP
