^C:\USERS\LUKAS\DOCUMENTS\VISUAL STUDIO 2012\BP\SUMMER\TESTPROJECT1\TESTPROJECT1\DEBUG\KINECTCONTROLLER.OBJ|C:\USERS\LUKAS\DOCUMENTS\VISUAL STUDIO 2012\BP\SUMMER\TESTPROJECT1\TESTPROJECT1\DEBUG\OPENCVFRAMEHELPER.OBJ|C:\USERS\LUKAS\DOCUMENTS\VISUAL STUDIO 2012\BP\SUMMER\TESTPROJECT1\TESTPROJECT1\DEBUG\OPENCVHELPER.OBJ|C:\USERS\LUKAS\DOCUMENTS\VISUAL STUDIO 2012\BP\SUMMER\TESTPROJECT1\TESTPROJECT1\DEBUG\STDAFX.OBJ|C:\USERS\LUKAS\DOCUMENTS\VISUAL STUDIO 2012\BP\SUMMER\TESTPROJECT1\TESTPROJECT1\DEBUG\TESTPROJECT1.OBJ|C:\USERS\LUKAS\DOCUMENTS\VISUAL STUDIO 2012\BP\SUMMER\TESTPROJECT1\TESTPROJECT1\DEBUG\TESTPROJECT1.RES|C:\USERS\LUKAS\DOCUMENTS\VISUAL STUDIO 2012\BP\SUMMER\TESTPROJECT1\TESTPROJECT1\DEBUG\TESTPROJECT1DLG.OBJ
C:\PROGRAM FILES\MICROSOFT SDKS\KINECT\V1.8\LIB\X86\KINECT10.LIB
C:\PROGRAM FILES (X86)\WINDOWS KITS\8.0\LIB\WIN8\UM\X86\COMCTL32.LIB
D:\OPENCV\OPENCV\BUILD\X86\VC11\LIB\OPENCV_CORE249D.LIB
D:\OPENCV\OPENCV\BUILD\X86\VC11\LIB\OPENCV_IMGPROC249D.LIB
D:\OPENCV\OPENCV\BUILD\X86\VC11\LIB\OPENCV_HIGHGUI249D.LIB
D:\OPENCV\OPENCV\BUILD\X86\VC11\LIB\OPENCV_ML249D.LIB
D:\OPENCV\OPENCV\BUILD\X86\VC11\LIB\OPENCV_VIDEO249D.LIB
D:\OPENCV\OPENCV\BUILD\X86\VC11\LIB\OPENCV_FEATURES2D249D.LIB
D:\OPENCV\OPENCV\BUILD\X86\VC11\LIB\OPENCV_CALIB3D249D.LIB
D:\OPENCV\OPENCV\BUILD\X86\VC11\LIB\OPENCV_OBJDETECT249D.LIB
D:\OPENCV\OPENCV\BUILD\X86\VC11\LIB\OPENCV_CONTRIB249D.LIB
D:\OPENCV\OPENCV\BUILD\X86\VC11\LIB\OPENCV_LEGACY249D.LIB
D:\OPENCV\OPENCV\BUILD\X86\VC11\LIB\OPENCV_FLANN249D.LIB
C:\USERS\LUKAS\DOCUMENTS\VISUAL STUDIO 2012\BP\SUMMER\TESTPROJECT1\TESTPROJECT1\DEBUG\TESTPROJECT1.RES
C:\USERS\LUKAS\DOCUMENTS\VISUAL STUDIO 2012\BP\SUMMER\TESTPROJECT1\TESTPROJECT1\DEBUG\KINECTCONTROLLER.OBJ
C:\USERS\LUKAS\DOCUMENTS\VISUAL STUDIO 2012\BP\SUMMER\TESTPROJECT1\TESTPROJECT1\DEBUG\OPENCVFRAMEHELPER.OBJ
C:\USERS\LUKAS\DOCUMENTS\VISUAL STUDIO 2012\BP\SUMMER\TESTPROJECT1\TESTPROJECT1\DEBUG\OPENCVHELPER.OBJ
C:\USERS\LUKAS\DOCUMENTS\VISUAL STUDIO 2012\BP\SUMMER\TESTPROJECT1\TESTPROJECT1\DEBUG\STDAFX.OBJ
C:\USERS\LUKAS\DOCUMENTS\VISUAL STUDIO 2012\BP\SUMMER\TESTPROJECT1\TESTPROJECT1\DEBUG\TESTPROJECT1.OBJ
C:\USERS\LUKAS\DOCUMENTS\VISUAL STUDIO 2012\BP\SUMMER\TESTPROJECT1\TESTPROJECT1\DEBUG\TESTPROJECT1DLG.OBJ
C:\WINDOWS\SYSTEM32\TZRES.DLL
C:\WINDOWS\GLOBALIZATION\SORTING\SORTDEFAULT.NLS
C:\PROGRAM FILES (X86)\MICROSOFT VISUAL STUDIO 11.0\VC\INCLUDE\MANIFEST\DPIAWARE.MANIFEST
C:\PROGRAM FILES (X86)\MICROSOFT VISUAL STUDIO 11.0\VC\ATLMFC\LIB\UAFXCWD.LIB
C:\PROGRAM FILES (X86)\MICROSOFT VISUAL STUDIO 11.0\VC\LIB\LIBCMTD.LIB
C:\PROGRAM FILES (X86)\WINDOWS KITS\8.0\LIB\WIN8\UM\X86\KERNEL32.LIB
C:\PROGRAM FILES (X86)\WINDOWS KITS\8.0\LIB\WIN8\UM\X86\USER32.LIB
C:\PROGRAM FILES (X86)\WINDOWS KITS\8.0\LIB\WIN8\UM\X86\GDI32.LIB
C:\PROGRAM FILES (X86)\WINDOWS KITS\8.0\LIB\WIN8\UM\X86\MSIMG32.LIB
C:\PROGRAM FILES (X86)\WINDOWS KITS\8.0\LIB\WIN8\UM\X86\COMDLG32.LIB
C:\PROGRAM FILES (X86)\WINDOWS KITS\8.0\LIB\WIN8\UM\X86\WINSPOOL.LIB
C:\PROGRAM FILES (X86)\WINDOWS KITS\8.0\LIB\WIN8\UM\X86\ADVAPI32.LIB
C:\PROGRAM FILES (X86)\WINDOWS KITS\8.0\LIB\WIN8\UM\X86\SHELL32.LIB
C:\PROGRAM FILES (X86)\WINDOWS KITS\8.0\LIB\WIN8\UM\X86\SHLWAPI.LIB
C:\PROGRAM FILES (X86)\WINDOWS KITS\8.0\LIB\WIN8\UM\X86\UXTHEME.LIB
C:\PROGRAM FILES (X86)\WINDOWS KITS\8.0\LIB\WIN8\UM\X86\WINDOWSCODECS.LIB
C:\PROGRAM FILES (X86)\WINDOWS KITS\8.0\LIB\WIN8\UM\X86\UUID.LIB
C:\PROGRAM FILES (X86)\MICROSOFT VISUAL STUDIO 11.0\VC\ATLMFC\LIB\ATLSD.LIB
C:\PROGRAM FILES (X86)\WINDOWS KITS\8.0\LIB\WIN8\UM\X86\OLE32.LIB
C:\PROGRAM FILES (X86)\WINDOWS KITS\8.0\LIB\WIN8\UM\X86\OLEAUT32.LIB
C:\PROGRAM FILES (X86)\WINDOWS KITS\8.0\LIB\WIN8\UM\X86\OLEDLG.LIB
C:\PROGRAM FILES (X86)\WINDOWS KITS\8.0\LIB\WIN8\UM\X86\URLMON.LIB
C:\PROGRAM FILES (X86)\WINDOWS KITS\8.0\LIB\WIN8\UM\X86\GDIPLUS.LIB
C:\PROGRAM FILES (X86)\MICROSOFT VISUAL STUDIO 11.0\VC\LIB\COMSUPPWD.LIB
C:\PROGRAM FILES (X86)\MICROSOFT VISUAL STUDIO 11.0\VC\LIB\LIBCPMTD.LIB
C:\PROGRAM FILES (X86)\MICROSOFT VISUAL STUDIO 11.0\VC\LIB\OLDNAMES.LIB
C:\PROGRAM FILES (X86)\WINDOWS KITS\8.0\LIB\WIN8\UM\X86\WS2_32.LIB
C:\PROGRAM FILES (X86)\WINDOWS KITS\8.0\LIB\WIN8\UM\X86\MSWSOCK.LIB
C:\PROGRAM FILES (X86)\WINDOWS KITS\8.0\LIB\WIN8\UM\X86\OLEACC.LIB
C:\PROGRAM FILES (X86)\WINDOWS KITS\8.0\LIB\WIN8\UM\X86\PROPSYS.LIB
C:\PROGRAM FILES (X86)\WINDOWS KITS\8.0\LIB\WIN8\UM\X86\IMM32.LIB
C:\PROGRAM FILES (X86)\WINDOWS KITS\8.0\LIB\WIN8\UM\X86\WINMM.LIB
C:\PROGRAM FILES (X86)\WINDOWS KITS\8.0\LIB\WIN8\UM\X86\MSXML6.LIB
C:\PROGRAM FILES (X86)\WINDOWS KITS\8.0\BIN\X86\MT.EXE
C:\PROGRAM FILES (X86)\WINDOWS KITS\8.0\BIN\X86\RC.EXE
C:\PROGRAM FILES (X86)\MICROSOFT VISUAL STUDIO 11.0\VC\BIN\CVTRES.EXE
C:\WINDOWS\SYSTEM32\RSAENH.DLL
